%YAML 1.1
%TAG !u! tag:unity3d.com,2011:
--- !u!21 &2100000
Material:
  serializedVersion: 6
  m_ObjectHideFlags: 0
  m_PrefabParentObject: {fileID: 0}
  m_PrefabInternal: {fileID: 0}
  m_Name: CloudyCrownSkybox
  m_Shader: {fileID: 4800000, guid: b39eba844529e304596997d76a5bab7e, type: 3}
  m_ShaderKeywords: _EMISSION
  m_LightmapFlags: 1
  m_CustomRenderQueue: -1
  stringTagMap: {}
  m_SavedProperties:
    serializedVersion: 2
    m_TexEnvs:
    - first:
        name: _CloudsTex
      second:
        m_Texture: {fileID: 8900000, guid: bfa1267ef40a77540ac2cfde9297f199, type: 3}
        m_Scale: {x: 1, y: 1}
        m_Offset: {x: 0, y: 0}
    - first:
        name: _MoonTex
      second:
        m_Texture: {fileID: 2800000, guid: bcc9104dc91320244a4a61b1d1765f6a, type: 3}
        m_Scale: {x: 1, y: 1}
        m_Offset: {x: 0, y: 0}
    - first:
        name: _StarsTex
      second:
        m_Texture: {fileID: 8900000, guid: 2ae1c03b9dcaa7740bf07606d3b34c28, type: 3}
        m_Scale: {x: 1, y: 1}
        m_Offset: {x: 0, y: 0}
    - first:
        name: _StarsTwinklingTex
      second:
        m_Texture: {fileID: 8900000, guid: 9f4899b793421c646b47e9560bb352f7, type: 3}
        m_Scale: {x: 1, y: 1}
        m_Offset: {x: 0, y: 0}
    - first:
        name: _SunTex
      second:
        m_Texture: {fileID: 2800000, guid: 4c627ba7925bdd749a7881345ae253d0, type: 3}
        m_Scale: {x: 1, y: 1}
        m_Offset: {x: 0, y: 0}
    m_Floats:
    - first:
        name: _CloudsHeight
      second: 0.75
    - first:
        name: _CloudsOffset
      second: 0.2
    - first:
        name: _CloudsRotationSpeed
      second: 1
    - first:
        name: _Exposure
      second: 1
    - first:
        name: _MoonSize
      second: 0.04
    - first:
        name: _StarsExtinction
      second: 2
    - first:
        name: _StarsTwinklingSpeed
      second: 4
    - first:
        name: _SunSize
      second: 0.04
    m_Colors:
    - first:
        name: _BottomColor
      second: {r: 0.44705886, g: 0.44705886, b: 0.44705886, a: 1}
    - first:
        name: _MoonTint
      second: {r: 0.5, g: 0.5, b: 0.5, a: 1}
    - first:
        name: _StarsTint
      second: {r: 0.5, g: 0.5, b: 0.5, a: 1}
    - first:
        name: _SunTint
      second: {r: 0.5, g: 0.5, b: 0.5, a: 1}
    - first:
        name: _TopColor
      second: {r: 1, g: 1, b: 1, a: 1}
